^C:\USERS\DW\SOURCE\REPOS\HOMEWORK_15\HOMEWORK_15.CPP
C:\USERS\DW\SOURCE\REPOS\HOMEWORK_15\DEBUG\VC142.PDB
C:\USERS\DW\SOURCE\REPOS\HOMEWORK_15\DEBUG\VC142.IDB
C:\USERS\DW\SOURCE\REPOS\HOMEWORK_15\DEBUG\HOMEWORK_15.OBJ
