^C:\Users\DW\source\repos\HomeWork_15\HomeWork_15.vcxproj
C:\Users\DW\source\repos\HomeWork_15\Release\HomeWork_15.ipdb
C:\Users\DW\source\repos\HomeWork_15\Release\HomeWork_15.iobj
^C:\Users\DW\source\repos\HomeWork_15\HomeWork_15.vcxproj
C:\Users\DW\source\repos\HomeWork_15\Release\HomeWork_15.ipdb
C:\Users\DW\source\repos\HomeWork_15\Release\HomeWork_15.iobj
^C:\Users\DW\source\repos\HomeWork_15\HomeWork_15.vcxproj
C:\Users\DW\source\repos\HomeWork_15\Release\HomeWork_15.ipdb
C:\Users\DW\source\repos\HomeWork_15\Release\HomeWork_15.iobj
^C:\Users\DW\source\repos\HomeWork_15\HomeWork_15.vcxproj
C:\Users\DW\source\repos\HomeWork_15\Release\HomeWork_15.ipdb
C:\Users\DW\source\repos\HomeWork_15\Release\HomeWork_15.iobj
^C:\Users\DW\source\repos\HomeWork_15\HomeWork_15.vcxproj
C:\Users\DW\source\repos\HomeWork_15\Release\HomeWork_15.ipdb
C:\Users\DW\source\repos\HomeWork_15\Release\HomeWork_15.iobj
^C:\Users\DW\source\repos\HomeWork_15\HomeWork_15.vcxproj
C:\Users\DW\source\repos\HomeWork_15\Release\HomeWork_15.ipdb
C:\Users\DW\source\repos\HomeWork_15\Release\HomeWork_15.iobj
^C:\Users\DW\source\repos\HomeWork_15\HomeWork_15.vcxproj
C:\Users\DW\source\repos\HomeWork_15\Release\HomeWork_15.ipdb
C:\Users\DW\source\repos\HomeWork_15\Release\HomeWork_15.iobj
